Tidy text mining
…
bind_tf_idf()

The tf-idf is now calculated using bind_tf_idf().

sotu_20cent_tf_idf <- sotu_20cent_termcount %>% 
  bind_tf_idf(word, decade, n)

sotu_20cent_tf_idf

## # A tibble: 68,733 x 7
##    decade word      n  total     tf   idf tf_idf
##    <fct>  <chr> <int>  <int>  <dbl> <dbl>  <dbl>
##  1 1900s  the   17259 191723 0.0900     0      0
##  2 1900s  of    10419 191723 0.0543     0      0
##  3 1910s  the   10177 109919 0.0926     0      0
##  4 1970s  the    7005 114212 0.0613     0      0
##  5 1980s  the    6948 113637 0.0611     0      0
##  6 1910s  of     6649 109919 0.0605     0      0
##  7 1900s  to     6423 191723 0.0335     0      0
##  8 1900s  and    6178 191723 0.0322     0      0
##  9 1920s  the    6014  77559 0.0775     0      0
## 10 1940s  the    5298  72710 0.0729     0      0
## #  with 68,723 more rows

Do you see how those more common words get zero? When you work with tf-idfs, there is no need to remove stopwords, because they are universally common across documents and, hence, will get a value which is basically 0.

Lets look at the important words

sotu_20cent_tf_idf %>% 
  arrange(desc(tf_idf))

## # A tibble: 68,733 x 7
##    decade word            n  total       tf   idf  tf_idf
##    <fct>  <chr>       <int>  <int>    <dbl> <dbl>   <dbl>
##  1 2000s  tonight        27   9270 0.00291  0.788 0.00230
##  2 1940s  1947           96  72710 0.00132  1.70  0.00225
##  3 2000s  ve             23   9270 0.00248  0.788 0.00196
##  4 1980s  1980          138 113637 0.00121  1.30  0.00158
##  5 1990s  tonight       126  65539 0.00192  0.788 0.00152
##  6 1910s  00             58 109919 0.000528 2.40  0.00127
##  7 1960s  vietnam        65  59148 0.00110  1.01  0.00111
##  8 2000s  internet        6   9270 0.000647 1.70  0.00110
##  9 2000s  21st           10   9270 0.00108  1.01  0.00109
## 10 1980s  afghanistan    51 113637 0.000449 2.40  0.00108
## #  with 68,723 more rows
…
