Manipulating data with dplyr
…
summarize() and group_by

When you analyze data, you often want to compare entities according to some sort of summary statistic. This means that you, first, need to split up your dataset into certain groups which share one or more characteristics, and, second, collapse the columns together into single-row summaries. The former challenge is accomplished using group_by() whose argument is one or more variables, the latter requires the summarize() function. This function works similar to mutate() but uses summary functions  which take a vector of multiple values and return a single value  instead of window functions  which return a vector of the same length as the input.

Let me provide you an example.

I am interested in the directors average ratings:

imdb_selected %>% 
  group_by(director) %>% 
  summarize(avg_rating = mean(rating))

## `summarise()` ungrouping output (override with `.groups` argument)

## # A tibble: 644 x 2
##    director            avg_rating
##    <chr>                    <dbl>
##  1 Aamir Khan                 8.5
##  2 Abdellatif Kechiche        7.8
##  3 Adam Leon                  6.5
##  4 Adam McKay                 7  
##  5 Adam Shankman              6.3
##  6 Adam Wingard               5.9
##  7 Afonso Poyart              6.4
##  8 Aisling Walsh              7.8
##  9 Akan Satayev               6.3
## 10 Akiva Schaffer             6.7
## #  with 634 more rows
…
Summary functions in R

Another handy function akin to this is count(). It counts all occurences of a singular value in the tibble.

If I were interested in how many movies of the different directors have made it into the dataset, I could use this code:

imdb_selected %>% 
  count(director)

## # A tibble: 644 x 2
##    director                n
##    <chr>               <int>
##  1 Aamir Khan              1
##  2 Abdellatif Kechiche     1
##  3 Adam Leon               1
##  4 Adam McKay              4
##  5 Adam Shankman           2
##  6 Adam Wingard            2
##  7 Afonso Poyart           1
##  8 Aisling Walsh           1
##  9 Akan Satayev            1
## 10 Akiva Schaffer          1
## #  with 634 more rows

Beyond that, you can also use group_by() with mutate. If you do so, the rows will not be collapsed together as in summarize().

arrange()

Finally, you can also sort values using arrange(). In the last section, I was interested in directors respective average ratings. The values were ordered according to their name (hence, Aamir Khan was first). In this case, this order dos not make too much sense, because the first name does not say too much about the directors ratings. Therefore, I want to sort them according to their average ratings:

imdb_selected %>% 
  group_by(director) %>% 
  summarize(avg_rating = mean(rating)) %>% 
  arrange(avg_rating)

## `summarise()` ungrouping output (override with `.groups` argument)

## # A tibble: 644 x 2
##    director           avg_rating
##    <chr>                   <dbl>
##  1 Jason Friedberg           1.9
##  2 James Wong                2.7
##  3 Shawn Burkett             2.7
##  4 Jonathan Holbrook         3.2
##  5 Femi Oyeniran             3.5
##  6 Micheal Bafaro            3.5
##  7 Jeffrey G. Hunt           3.7
##  8 Rolfe Kanefsky            3.9
##  9 Joey Curtis               4  
## 10 Sam Taylor-Johnson        4.1
## #  with 634 more rows

All right, Jason Friedberg is apparently the director of the worst rated movie in my dataset. But it would be more handy, if they were arranged in descending order. I can use desc() for this:

imdb_selected %>% 
  group_by(director) %>% 
  summarize(avg_rating = mean(rating)) %>% 
  arrange(desc(avg_rating))

## `summarise()` ungrouping output (override with `.groups` argument)

## # A tibble: 644 x 2
##    director                         avg_rating
##    <chr>                                 <dbl>
##  1 Nitesh Tiwari                          8.8 
##  2 Christopher Nolan                      8.68
##  3 Makoto Shinkai                         8.6 
##  4 Olivier Nakache                        8.6 
##  5 Aamir Khan                             8.5 
##  6 Florian Henckel von Donnersmarck       8.5 
##  7 Damien Chazelle                        8.4 
##  8 Naoko Yamada                           8.4 
##  9 Amber Tamblyn                          8.3 
## 10 Lee Unkrich                            8.3 
## #  with 634 more rows
…
