Tidying data (and some things on tibbles)
…
You can create a tibble by column using the tibble function. Column names need to be specified and linked to vectors of either the same length or length one.

This dataset basically consists of three variables: German car manufacturer, number of cylinders, and frequency. To make the dataset tidy, it has to consist of three columns depicting the three respective variables. This operation is called pivoting the non-variable columns into two-column key-value pairs. As the dataset will thereafter contain fewer columns and more rows than before, it will have become longer (or taller). Hence, the tidyr function is called pivot_longer().

ger_car_manufacturer_longer <- tibble_value_headers %>% 
  pivot_longer(-manufacturer, names_to = "cylinders", values_to = "frequency")
ger_car_manufacturer_longer

## # A tibble: 40 x 3
##    manufacturer cylinders frequency
##    <chr>        <chr>         <dbl>
##  1 Audi         3 cyl             3
##  2 Audi         4 cyl            75
##  3 Audi         5 cyl             6
##  4 Audi         6 cyl            31
##  5 Audi         8 cyl            30
##  6 Audi         10 cyl            2
##  7 Audi         12 cyl            6
##  8 Audi         16 cyl            0
##  9 BMW          3 cyl            12
## 10 BMW          4 cyl            76
## #  with 30 more rows
…
ger_car_manufacturer_longer_sep_cyl <- ger_car_manufacturer_longer %>% 
  separate(cylinders, into = c("cylinders", "drop_it"), sep = " ") %>% 
  select(-drop_it) # you will learn about this in the lesson on dplyr 

If there are two (or actually more) relevant values in one column, you can simply let out the dropping process and easily split them into multiple columns.

Please note that the new column is still in character format. We can change this using as.numeric():

ger_car_manufacturer_longer_sep_cyl$cylinders <- as.numeric(ger_car_manufacturer_longer_sep_cyl$cylinders)

Furthermore, you might want to sort your data in a different manner. If you want to do this by cylinders, it would look like this:

arrange(ger_car_manufacturer_longer_sep_cyl, cylinders)

## # A tibble: 40 x 3
##    manufacturer cylinders frequency
##    <chr>            <dbl>     <dbl>
##  1 Audi                 3         3
##  2 BMW                  3        12
##  3 Mercedes             3        19
##  4 Opel                 3        13
##  5 VW                   3         7
##  6 Audi                 4        75
##  7 BMW                  4        76
##  8 Mercedes             4        63
##  9 Opel                 4        56
## 10 VW                   4        55
## #  with 30 more rows
Insertion: the pipe

Have you noticed the %>%? Thats the pipe. Its from the magrittr package whose name is based on the Belgian painter who has painted this masterpiece:

[figures/pipe1.png]

Just kidding:

[figures/pipe2.png]

It can be considered a conjunction in coding. Usually, you will use it when working with tibbles. What it does is pretty straight-forward: it takes what is on its left  the input  and provides it to the function on its right as the first argument. Hence, the code in the last chunk, which looks like this

arrange(ger_car_manufacturer_longer_sep_cyl, cylinders)

## # A tibble: 40 x 3
##    manufacturer cylinders frequency
##    <chr>            <dbl>     <dbl>
##  1 Audi                 3         3
##  2 BMW                  3        12
##  3 Mercedes             3        19
##  4 Opel                 3        13
##  5 VW                   3         7
##  6 Audi                 4        75
##  7 BMW                  4        76
##  8 Mercedes             4        63
##  9 Opel                 4        56
## 10 VW                   4        55
## #  with 30 more rows

could have also been written like this

ger_car_manufacturer_longer_sep_cyl %>% arrange(cylinders)

## # A tibble: 40 x 3
##    manufacturer cylinders frequency
##    <chr>            <dbl>     <dbl>
##  1 Audi                 3         3
##  2 BMW                  3        12
##  3 Mercedes             3        19
##  4 Opel                 3        13
##  5 VW                   3         7
##  6 Audi                 4        75
##  7 BMW                  4        76
##  8 Mercedes             4        63
##  9 Opel                 4        56
## 10 VW                   4        55
## #  with 30 more rows
…
