Take-home Assignment #1
…
raw_middle_header <- raw_headers[17:27]

tidy_headers <- c( # fix headers
  rep(raw_middle_header[1:7], each = 2),
  "animal_total",
  rep(raw_middle_header[8:length(raw_middle_header)], each = 2),
  "non_animal_total",
  "country_total")

combined_colnames <- paste(tidy_headers, tidy_bottom_header, sep = ';') # create column names
colnames(table_content) <- c("Country", combined_colnames) # add column names
table_content_tbl <- as_tibble(table_content)
table_content_tbl

## # A tibble: 130 x 26
##    Country `Pork;Supplied  `Pork;Kg CO2/pe `Poultry;Suppli `Poultry;Kg CO2
##    <chr>   <chr>            <chr>            <chr>            <chr>           
##  1 Argent 10.51            37.20            38.66            41.53           
##  2 Austra 24.14            85.44            46.12            49.54           
##  3 Albania 10.88            38.51            13.23            14.21           
##  4 Iceland 21.69            76.77            26.87            28.86           
##  5 New Ze 22.29            78.90            34.98            37.58           
##  6 USA     27.64            97.83            50.01            53.72           
##  7 Uruguay 16.84            59.61            27.45            29.49           
##  8 Luxemb 43.58            154.25           21.37            22.96           
##  9 Brazil  12.60            44.60            45.00            48.34           
## 10 Kazakh 10.36            36.67            18.38            19.74           
## #  with 120 more rows, and 21 more variables: `Beef;Supplied for Consumption
## #   (kg/person/year)` <chr>, `Beef;Kg CO2/person/year` <chr>, `Lamb &
## #   Goat;Supplied for Consumption (kg/person/year)` <chr>, `Lamb & Goat;Kg
## #   CO2/person/year` <chr>, `Fish;Supplied for Consumption
## #   (kg/person/year)` <chr>, `Fish;Kg CO2/person/year` <chr>, `Eggs;Supplied
## #   for Consumption (kg/person/year)` <chr>, `Eggs;Kg CO2/person/year` <chr>,
## #   `Milk - inc. cheese;Supplied for Consumption (kg/person/year)` <chr>, `Milk
## #   - inc. cheese;Kg CO2/person/year` <chr>, `animal_total;Kg
## #   CO2/person/year` <chr>, `Wheat and Wheat Products;Supplied for Consumption
…
